^D:\USERS\TOMPSA\DOCUMENTS\ARKANOIDI\ARKANOIDI\DEBUG\BRICK.OBJ|D:\USERS\TOMPSA\DOCUMENTS\ARKANOIDI\ARKANOIDI\DEBUG\BRICKMANAGER.OBJ|D:\USERS\TOMPSA\DOCUMENTS\ARKANOIDI\ARKANOIDI\DEBUG\GAME.OBJ|D:\USERS\TOMPSA\DOCUMENTS\ARKANOIDI\ARKANOIDI\DEBUG\GAMEBALL.OBJ|D:\USERS\TOMPSA\DOCUMENTS\ARKANOIDI\ARKANOIDI\DEBUG\GAMEOBJECTMANAGER.OBJ|D:\USERS\TOMPSA\DOCUMENTS\ARKANOIDI\ARKANOIDI\DEBUG\MAIN.OBJ|D:\USERS\TOMPSA\DOCUMENTS\ARKANOIDI\ARKANOIDI\DEBUG\MAINMENU.OBJ|D:\USERS\TOMPSA\DOCUMENTS\ARKANOIDI\ARKANOIDI\DEBUG\PLAYERPADDLE.OBJ|D:\USERS\TOMPSA\DOCUMENTS\ARKANOIDI\ARKANOIDI\DEBUG\SERVICELOCATOR.OBJ|D:\USERS\TOMPSA\DOCUMENTS\ARKANOIDI\ARKANOIDI\DEBUG\SFMLSOUNDPROVIDER.OBJ|D:\USERS\TOMPSA\DOCUMENTS\ARKANOIDI\ARKANOIDI\DEBUG\SOUNDFILECACHE.OBJ|D:\USERS\TOMPSA\DOCUMENTS\ARKANOIDI\ARKANOIDI\DEBUG\SPLASHSCREEN.OBJ|D:\USERS\TOMPSA\DOCUMENTS\ARKANOIDI\ARKANOIDI\DEBUG\STDAFX.OBJ|D:\USERS\TOMPSA\DOCUMENTS\ARKANOIDI\ARKANOIDI\DEBUG\VISIBLEGAMEOBJECT.OBJ
D:\USERS\TOMPSA\DOCUMENTS\ARKANOIDI\DEBUG\ARKANOIDI.ILK
D:\USERS\TOMPSA\DOCUMENTS\ARKANOIDI\DEBUG\ARKANOIDI.EXE
D:\USERS\TOMPSA\DOCUMENTS\ARKANOIDI\DEBUG\ARKANOIDI.PDB
